Functions
  overflow x 223,834,804 ops/sec ±0.42% (95 runs sampled)
  clamp x 222,307,625 ops/sec ±0.32% (91 runs sampled)
  within x 223,844,303 ops/sec ±0.42% (93 runs sampled)
  outside x 222,657,700 ops/sec ±0.37% (95 runs sampled)
  assert x 221,045,434 ops/sec ±0.35% (95 runs sampled)
  valid x 220,605,742 ops/sec ±0.32% (93 runs sampled)
Fastest was overflow,within,outside,clamp

Validation + functions
  valid && overflow x 221,914,595 ops/sec ±0.42% (91 runs sampled)
  valid && clamp x 221,793,067 ops/sec ±0.33% (95 runs sampled)
  valid && assert x 200,725,337 ops/sec ±6.44% (86 runs sampled)
Fastest was valid && clamp,valid && assert

Fastest validation method
  valid && overflow x 220,400,317 ops/sec ±0.23% (95 runs sampled)
  if valid then overflow x 220,930,642 ops/sec ±0.27% (94 runs sampled)
  spill x 202,382,744 ops/sec ±0.08% (99 runs sampled)
Fastest was if valid then overflow,valid && overflow
